<?xml version="1.0" encoding="UTF-8"?>
<svg width="183px" height="170px" viewBox="0 0 183 170" version="1.1" xmlns="http://www.w3.org/2000/svg" xmlns:xlink="http://www.w3.org/1999/xlink">
    <title>Group 4</title>
    <defs>
        <filter id="filter-1">
            <feColorMatrix in="SourceGraphic" type="matrix" values="0 0 0 0 0.063767 0 0 0 0 0.176652 0 0 0 0 0.336018 0 0 0 1.000000 0"></feColorMatrix>
        </filter>
        <filter id="filter-2">
            <feColorMatrix in="SourceGraphic" type="matrix" values="0 0 0 0 0.041769 0 0 0 0 0.155078 0 0 0 0 0.315043 0 0 0 1.000000 0"></feColorMatrix>
        </filter>
        <polygon id="path-3" points="0 0 52.0356782 0 52.0356782 161.369069 0 161.369069"></polygon>
    </defs>
    <g id="💥-Symbols" stroke="none" stroke-width="1" fill="none" fill-rule="evenodd">
        <g id="components/footer" transform="translate(-1328.000000, -242.000000)">
            <g id="Group-4" transform="translate(1329.021384, 242.000000)">
                <g id="Group-7" transform="translate(69.978616, 0.000000)">
                    <path d="M37.8868463,160.113806 C13.94503,148.824619 4.40579933,121.985128 1.02978103,96.9856644 C0.460399086,92.8352277 -0.733914258,88.5187735 0.62704746,84.5343543 C1.98800918,80.5499351 6.18199325,77.3001432 10.2093289,78.4193776 C13.5561838,79.3463085 15.5156909,82.6943274 17.7501678,85.3367721 C20.7248413,88.9019972 24.6549655,91.5499758 29.0822572,92.974959 C31.9708291,93.9018899 35.4010081,94.1924205 37.7757474,92.3095057 C41.0253907,89.7224002 40.5532203,84.7142066 39.8866268,80.5928229 C38.5256651,72.9449516 37.1924781,65.2998473 35.8884546,57.6533594 C34.9468913,53.5734801 34.6705327,49.3690878 35.0677113,45.2020494 C35.6787554,41.0516127 37.9160098,36.901176 41.6642095,35.1856622 C45.4137979,33.4701483 50.677109,34.8688455 52.1908317,38.7688725 C52.6380049,40.4470324 52.9713016,42.1514784 53.1921107,43.8739096 C53.5948443,45.5755887 54.7183321,47.3326069 56.4278666,47.5401287 C58.1346237,47.7476505 59.6205717,46.2949977 60.662124,44.8700144 C64.2172893,39.9863339 66.2170698,34.1342182 68.0224272,28.3374416 C69.8277846,22.5420486 71.5220431,16.6332102 74.6328127,11.4313296 C77.7435823,6.22944893 82.493061,1.74697731 88.3688049,0.363498416 C94.2417713,-1.01998048 101.185454,1.6100129 103.644906,7.15637978 C106.101581,12.7041301 103.726841,19.1940296 100.867433,24.5328747 C96.5220766,32.44084 91.0532324,39.6819686 84.6317151,46.0321367 C83.3513001,47.0489937 82.4264016,48.4435404 81.9931159,50.0165559 C81.5626076,52.9218616 84.6456025,55.21982 87.5480616,55.6611498 C90.7990937,56.1592022 94.1028977,55.2751592 97.3955918,55.1091417 C100.685508,54.9417408 104.421209,55.7718281 106.171017,58.6079598 C108.573531,62.5384234 105.78356,67.5604518 102.796388,71.0592699 C96.7998239,78.033387 89.6464424,83.929774 81.6459317,88.4911039 C78.7851347,90.1097743 75.7438019,91.631601 73.6468098,94.1772022 C71.5498178,96.7241868 70.7026885,100.679553 72.6746943,103.335832 C74.6467001,105.992112 78.6323737,106.282643 81.7167573,105.149573 C84.7983635,104.013737 87.3675259,101.814006 90.2144356,100.167666 C95.5485723,97.0700566 102.963036,96.2122997 107.448655,100.499701 C110.285843,103.539204 111.523208,107.731145 110.79551,111.816558 C110.056702,115.832797 108.512427,119.658116 106.254342,123.065625 C99.0620755,135.381354 88.7215439,145.577594 76.2854091,152.615351 C63.8562179,159.394397 51.8297602,162.700912 37.9007337,160.129025" id="Fill-1" fill="#274D81"></path>
                    <g filter="url(#filter-1)" id="Group-14">
                        <g transform="translate(2.492519, 7.722814)">
                            <path d="M37.3894158,141.000183 C39.2301191,126.75228 41.8898383,112.623433 45.3560798,98.6800911 L48.0227398,87.7020628 C48.8972821,84.0888656 49.7718244,80.5171993 50.7990646,77.0839698 C52.8743674,70.4943841 55.3119805,64.0238539 58.1007988,57.7028353 C60.7244257,51.639309 63.4313424,45.9634053 65.9980547,40.688968 C68.5675433,35.4131463 71.0801172,30.5415598 73.5510463,26.2084918 C77.4073614,19.3351109 81.8078362,12.7801344 86.7094376,6.60585868 C88.4446406,4.41855922 89.8480728,2.76977842 90.8045167,1.66366939 C91.2639985,1.13761003 91.6388023,0.722300005 91.9025532,0.402511286 C92.166304,0.0854913007 92.2912386,-0.0114143716 92.3051203,0 C92.2037844,0.163015839 92.0927314,0.313911814 91.9705731,0.457885956 L90.9169579,1.76057507 C89.9993825,2.8957558 88.6403715,4.52930856 86.9468134,6.78582636 C82.1507123,13.0210142 77.8321391,19.6064468 74.0230215,26.4853652 C71.5937373,30.8322768 69.1214201,35.7038634 66.5685894,40.979685 C64.0143706,46.2541223 61.3490988,51.930026 58.7532351,57.9935524 C55.9880156,64.3145709 53.5781657,70.7851011 51.5334025,77.3746868 C50.4659056,80.7940727 49.6052449,84.2965206 48.7570777,87.9512488 L46.093194,98.9431208 C42.6338933,112.857391 39.9602926,126.954398 38.083497,141.166307" id="Fill-4" fill="#E0E0E0"></path>
                            <path d="M51.4104467,76.9998036 C51.1034272,76.4608399 50.8600753,75.8914731 50.6874652,75.2999949 C50.2630142,74.206866 49.7126428,72.5360785 49.0618179,70.5861354 C47.7601682,66.5798385 46.1458397,60.9829076 44.3928571,54.8193739 C42.6384597,48.6558401 40.9533893,43.0865484 39.5824126,39.1203283 C38.9018762,37.1289265 38.3373563,35.5120353 37.9397873,34.4202883 C37.7035095,33.8536855 37.5181659,33.2663532 37.3894158,32.6665833 C37.7303914,33.1820538 38.0105291,33.7334551 38.2241694,34.3111136 C38.7179474,35.3752215 39.3546239,36.9644735 40.1059021,38.9268542 C41.6197773,42.8792547 43.3883231,48.4209072 45.1568689,54.6120801 C46.9254146,60.803253 48.4109931,66.2205293 49.5994559,70.4216824 C50.1498273,72.3287847 50.6039899,73.9318563 51.0142925,75.2170775 C51.1996361,75.7988819 51.3312159,76.3958878 51.4104467,76.9998036" id="Fill-6" fill="#E0E0E0"></path>
                            <path d="M102.820893,57.7498527 C102.154231,58.0245226 101.458524,58.2322331 100.746218,58.3647852 C99.3631018,58.7064144 97.4682319,59.1983605 95.0892713,59.8816188 C90.3175187,61.2481356 83.8030392,63.2705804 76.7076507,65.8669623 C69.6122621,68.4633441 63.291419,71.1007215 58.7271339,73.1231663 C56.4588226,74.1207236 54.6469397,74.9816291 53.3883036,75.5692313 C52.7562193,75.909494 52.0937064,76.192363 51.4104467,76.4164717 C51.983057,75.9805529 52.598544,75.6047608 53.2499919,75.295928 C54.4671346,74.6263348 56.2513551,73.6971034 58.4920041,72.5628944 C62.9608541,70.403798 69.266483,67.6844296 76.3757027,65.0743826 C82.4448186,62.8319285 88.6245839,60.9024069 94.897018,59.2940166 C97.3022579,58.6654189 99.2676667,58.2554639 100.635569,57.9958257 C101.35479,57.8468754 102.086459,57.7648844 102.820893,57.7498527" id="Fill-8" fill="#E0E0E0"></path>
                            <path d="M37.9736254,139.416311 C37.7975796,139.23576 37.6407889,139.03867 37.5060038,138.823663 L36.2833108,137.074663 C35.2229101,135.531022 33.7512774,133.284474 31.977066,130.472842 C28.401136,124.849579 23.7249199,116.924638 18.6773572,108.102455 C13.6297946,99.283029 9.04985351,91.3291443 5.57019859,85.6507514 L1.44412556,78.9124837 L0.343839419,77.0794103 C0.198051505,76.8754292 0.0825214605,76.6535309 0,76.4164717 C0,76.4164717 0.180171856,76.5956443 0.46762161,76.995337 C0.756446722,77.3950297 1.21031475,78.0441858 1.69168994,78.7594979 C2.75071535,80.2907344 4.22234806,82.5359048 6.01031304,85.3613187 C9.57248942,90.9845816 14.2624591,98.8971188 19.3100218,107.716545 C24.3575844,116.537349 28.9375255,124.491234 32.4034268,130.18341 L36.5294999,136.909273 C36.9709897,137.638368 37.3409609,138.287524 37.629786,138.742346 C37.7769493,138.947706 37.8924793,139.175117 37.9736254,139.416311" id="Fill-10" fill="#E0E0E0"></path>
                            <path d="M104.573522,104.999732 C104.378778,105.16892 104.160553,105.309221 103.924374,105.412384 L102.005932,106.43026 L94.8777265,110.130376 C88.8558362,113.266534 80.5978357,117.681913 71.480749,122.509946 C62.3650435,127.337978 54.065608,131.753357 48.0009015,134.751964 C44.9637142,136.251268 42.4762315,137.50298 40.7649649,138.231999 L38.6932137,139.139834 C38.4653211,139.259503 38.2236167,139.353038 37.9736254,139.416311 C38.1725135,139.249875 38.3893568,139.112324 38.6227742,139.003659 L40.5564087,137.984407 L47.6846141,134.270537 C53.6913116,131.148134 61.9520744,126.732754 71.0663988,121.890967 C80.1834854,117.04918 88.4967326,112.66131 94.5462463,109.664079 C97.5848148,108.1634 100.070916,106.913063 101.783564,106.182669 L103.772445,105.274834 C104.025199,105.142785 104.294526,105.050626 104.573522,104.999732" id="Fill-12" fill="#E0E0E0"></path>
                        </g>
                    </g>
                </g>
                <g filter="url(#filter-2)" id="Group-6">
                    <g transform="translate(40.935153, 84.833430) scale(-1, 1) rotate(11.000000) translate(-40.935153, -84.833430) translate(14.917314, 4.148895)">
                        <g id="Group-3">
                            <mask id="mask-4" fill="white">
                                <use xlink:href="#path-3"></use>
                            </mask>
                            <g id="Clip-2"></g>
                            <path d="M6.46837808,161.24679 C7.66352943,161.43062 8.88081321,161.40735 10.0678105,161.175817 C11.5087483,160.958246 12.9240591,160.59873 14.2962699,160.106578 C16.1903402,159.448047 17.9609348,158.481194 19.5381618,157.244413 C20.4863618,156.482333 21.2272159,155.494537 21.6931618,154.370614 C22.0822267,153.111727 22.2872429,151.80281 22.2988915,150.484585 C22.3245186,149.075609 22.4305213,147.66896 22.613405,146.272782 C22.8591915,144.785853 23.3973591,143.361751 24.1976213,142.084249 C25.7352429,139.384972 28.2979456,136.825312 29.113351,133.159182 C29.9287564,129.495379 29.3696212,125.655889 28.7638915,121.746592 C28.1581618,117.83613 27.5990266,113.602221 29.0667564,109.506766 C30.5344861,105.411311 33.3301618,101.74518 34.7629455,97.1622267 C36.1957293,92.5769459 35.5201077,87.5285996 35.8229726,82.6070727 C35.9126672,80.1067508 36.4892753,77.6483144 37.5236753,75.369054 C38.5720536,73.042091 40.0397834,70.8908136 41.1813509,68.470772 C43.5110806,63.5608799 43.9071347,57.9994382 44.5361617,52.5427098 C44.8506752,49.7968934 45.1535401,47.0161725 45.4680536,44.2238168 C45.6660806,41.4000471 46.154159,38.6053645 46.9241347,35.8816542 C47.8082671,33.1358378 48.8496563,30.4435415 50.0459725,27.8187272 C50.6610212,26.4609442 51.1677374,25.056622 51.5602968,23.6185588 C51.7792914,22.1304659 51.9202401,20.6307382 51.9796482,19.1275201 C52.1182671,16.1175934 52.0017806,13.1006857 51.6301887,10.1105382 C51.2807293,7.10875583 50.7332428,4.1302431 50.4070806,1.11682593 L50.4070806,0.593259235 L50.3371887,-0.000116348154 L49.8129995,0.25584959 C47.059259,1.66715269 44.6666266,3.69393753 42.8238104,6.17797061 C41.0159401,8.6108105 39.5610239,11.2844911 38.5021617,14.1245495 C36.3238645,19.7197322 35.543405,25.5836791 34.448432,31.1811888 C33.3534591,36.777535 31.9556212,42.2808026 29.0900537,46.9347288 C27.6572699,49.2616919 25.9216212,51.3792283 24.4305942,53.6363824 C22.8114321,55.838853 21.7048105,58.3752427 21.1922699,61.0593946 C20.4118105,66.5742971 23.4521077,71.4143803 22.8230807,76.3010027 C22.5388537,78.6942843 21.7444159,80.9991412 20.493351,83.0608305 C19.3284861,85.1434624 17.9189997,87.0748418 16.5910537,89.0062211 C15.2456348,90.9003691 14.0749456,92.9143556 13.0964591,95.0214207 C12.175051,97.0842734 11.6310591,99.2948883 11.4889456,101.547389 C11.1744321,105.946512 11.7918105,110.111776 11.4889456,114.044344 C11.1255078,117.791918 10.02937,121.432452 8.26226997,124.760009 C6.68970241,127.959583 4.93075647,130.856652 3.46302674,133.672277 C2.72916188,135.068455 2.04189161,136.441363 1.48275648,137.825906 C0.953907834,139.155766 0.563678106,140.534491 0.31789162,141.944631 C-0.0723381078,144.404231 -0.103789459,146.909207 0.224702432,149.379278 C0.5671727,152.823183 1.85784297,156.105365 3.95226998,158.861653 C4.27260782,159.278179 4.62672674,159.667945 5.01229701,160.025134 C5.26973214,160.295062 5.55395917,160.537066 5.86264836,160.746493 C6.3518916,161.107172 6.60816187,161.270059 6.60816187,161.270059 C5.67626998,160.534739 4.82941322,159.699359 4.08040512,158.780209 C2.08033215,156.01345 0.872367294,152.755701 0.585810538,149.356008 C0.288769999,146.917351 0.344683512,144.448443 0.748891619,142.024911 C0.993513239,140.65084 1.38490783,139.305855 1.91375648,138.012063 C2.50434296,136.612395 3.16831593,135.244141 3.90567539,133.916608 C5.38505376,131.123089 7.15564835,128.238818 8.76316186,125.014811 C10.5826808,121.637224 11.7149294,117.931536 12.0946754,114.114153 C12.4441348,110.100141 11.8384051,105.910444 12.1645672,101.629996 C12.3148348,99.4484679 12.8471781,97.3099888 13.7371348,95.312291 C14.7214456,93.2494383 15.8921348,91.2773371 17.2317294,89.4250745 C18.5596753,87.4925316 19.9691618,85.5623158 21.1806213,83.4331446 C22.5097321,81.293502 23.3600834,78.8920761 23.6734321,76.3940813 C24.3024591,71.1933188 21.2854591,66.329966 22.0659186,61.1990124 C22.5761294,58.6323721 23.6466402,56.2100036 25.199405,54.101775 C26.6787834,51.8795253 28.4260807,49.7619889 29.8588645,47.3768518 C32.8292699,42.5949427 34.2620536,36.9869617 35.345378,31.3673458 C36.4287023,25.74773 37.232459,19.9303224 39.3758104,14.4386895 C40.4067158,11.6777478 41.8220266,9.07736659 43.5809725,6.71317211 C45.3538968,4.32919845 47.6545049,2.38618428 50.3022428,1.03538222 L49.7081617,0.697972573 C49.7081617,0.872494803 49.7081617,1.04701703 49.7664049,1.23317408 C50.0925671,4.2814957 50.6400536,7.25884495 50.9312698,10.2385212 C51.2993671,13.1821294 51.412359,16.1524978 51.2690806,19.1158853 C51.2096725,20.5725642 51.0780428,22.0245891 50.8730266,23.4673062 C50.4967752,24.8576667 50.0063671,26.2166131 49.4052968,27.5266933 C48.2031563,30.1805947 47.1536131,32.899651 46.2601617,35.671064 C45.4843617,38.4378231 44.9916239,41.2767181 44.792432,44.1423731 C44.4895671,46.9463636 44.1750536,49.725921 43.8721887,52.4729009 C43.2431617,57.9528989 42.835459,63.4212621 40.6105671,68.156632 C39.4457023,70.4835951 38.0478644,72.7046813 36.9645401,75.0781837 C35.8986888,77.4435416 35.3046077,79.9927297 35.2172428,82.583803 C34.9260266,87.6100433 35.5783509,92.5304067 34.2154591,96.9760696 C32.8525672,101.420569 30.0219456,105.12044 28.5891618,109.320609 C27.156378,113.519614 27.6805672,117.965277 28.3095942,121.861776 C28.9386212,125.760603 29.5676483,129.600092 28.7289456,133.055632 C27.8902429,136.511172 25.4906213,139.094101 23.9297023,141.863187 C23.1073077,143.195374 22.5563267,144.678813 22.3105402,146.226243 C22.1346456,147.63871 22.0414564,149.060484 22.0309726,150.484585 C22.0333023,151.769069 21.8445942,153.047735 21.4718375,154.277535 C21.0408375,155.343284 20.3477429,156.283377 19.4566213,157.010553 C17.9224943,158.247334 16.1949997,159.222332 14.3428645,159.897151 C12.9892916,160.418391 11.589124,160.808157 10.1609997,161.060633 C9.28851591,161.218866 8.40438348,161.304964 7.51675646,161.316599 C6.78289159,161.24679 6.46837808,161.24679 6.46837808,161.24679" id="Fill-1" fill="#263238" mask="url(#mask-4)"></path>
                        </g>
                        <path d="M47.3489922,7.60071704 C47.2876243,7.7249828 47.2447825,7.85853946 47.2216249,7.9955802 L46.9437325,9.15694246 C46.6889979,10.1905549 46.3763691,11.736328 45.8900575,13.6641894 C45.403746,15.5908894 44.2111248,17.7742504 43.2037652,20.4569972 C42.0238808,23.4777005 40.9956792,26.5541491 40.1237921,29.6782136 C39.1280114,33.1623003 38.2595979,36.9959571 37.3332902,41.1292454 C36.5459286,45.5331311 35.1506777,49.8057828 33.1880632,53.8229349 C32.1228094,55.9366142 30.872294,58.0735208 29.9807228,60.4194725 C29.0451521,62.8153629 28.4187365,65.3204213 28.1165286,67.8754182 C27.4576923,73.1665847 26.5232794,78.4194262 25.3144478,83.6118768 C22.7207863,94.2615687 20.2429132,104.411875 17.9850382,113.656318 C15.7271632,122.900762 13.5966555,131.169661 11.8366708,138.161062 C10.0766862,145.152463 8.7451189,150.727002 7.77249582,154.710474 C7.32092081,156.61627 6.96197658,158.114427 6.70724196,159.21656 C6.60303235,159.692718 6.51040158,160.075968 6.4409285,160.377922 C6.42819177,160.513801 6.42819177,160.649681 6.4409285,160.784399 C6.50808581,160.664779 6.55903273,160.535867 6.5914535,160.401149 C6.67250543,160.087581 6.78829389,159.715946 6.92724004,159.239787 C7.2167112,158.160882 7.62197082,156.662724 8.14301889,154.769704 C9.18511505,150.819911 10.6556285,145.210531 12.4735074,138.300426 C14.2913862,131.39032 16.4103151,123.029673 18.7839786,113.842136 C21.157642,104.655761 23.566042,94.4369344 26.1828613,83.7744675 C27.3835876,78.5680805 28.2960007,73.29898 28.915469,67.9915544 C29.2107296,65.499271 29.818619,63.0522808 30.721769,60.7098131 C31.6364979,58.3870886 32.8059613,56.3082501 33.8712152,54.1725049 C36.1869844,49.9323713 37.1017133,45.3798313 38.0164421,41.2802225 C38.931171,37.1817751 39.7416902,33.3016638 40.6911556,29.8408043 C41.640621,26.3799447 42.6364018,23.2907211 43.6321825,20.6195879 C44.6279633,17.9484548 45.7279537,15.7418665 46.2026864,13.7443234 C46.6774191,11.7467803 46.8974172,10.2602366 47.1058364,9.19178333 C47.1834147,8.71214072 47.2528877,8.32424572 47.3142556,8.03042107 C47.3489922,7.74008051 47.3721499,7.60071704 47.3489922,7.60071704" id="Fill-4" fill="#263238"></path>
                    </g>
                </g>
            </g>
        </g>
    </g>
</svg>